{
  "linear": {
    "type": "linear",
    "points": [[0, 0.2], [1, 0.1]]
  },   
  "circle": {
    "type": "exponential",
    "points": [[0, 0.00001], [0.1, 0.01], [0.2, 0.04], [0.3, 0.09], [0.4, 0.166], [0.5, 0.268], [0.6, 0.4], [0.7, 0.572], [0.8, 0.8], [0.9, 0.9], [1, 1]],
    "offset": 0
  },
  "priceCircle": {
    "type": "exponential",
    "points": [[0, 0], [0.5, 0.06], [1, 0.18]],
    "offset": 0.01
  }
}
